…
Besides, we can also see number of unique `order_id` is equal to that of
`user_id`, both are 131209. This means in this dataset, only one order
is included for each unique user.

``` r
instacart %>% 
  group_by(user_id) %>% 
  summarize(distinct_order = n_distinct(order_id)) %>% 
  arrange(distinct_order)
```

    ## # A tibble: 131,209 x 2
    ##    user_id distinct_order
    ##      <int>          <int>
    ##  1       1              1
    ##  2       2              1
    ##  3       5              1
    ##  4       7              1
    ##  5       8              1
    ##  6       9              1
    ##  7      10              1
    ##  8      13              1
    ##  9      14              1
    ## 10      17              1
    ## # ... with 131,199 more rows
…
``` r
n_distinct(pull(instacart,aisle))
```

    ## [1] 134

``` r
instacart %>% 
  group_by(aisle) %>% 
  summarize(n_items = n()) %>% 
  arrange(by = desc(n_items))
```

    ## # A tibble: 134 x 2
    ##    aisle                         n_items
    ##    <chr>                           <int>
    ##  1 fresh vegetables               150609
    ##  2 fresh fruits                   150473
    ##  3 packaged vegetables fruits      78493
    ##  4 yogurt                          55240
    ##  5 packaged cheese                 41699
    ##  6 water seltzer sparkling water   36617
    ##  7 milk                            32644
    ##  8 chips pretzels                  31269
    ##  9 soy lactosefree                 26240
    ## 10 bread                           23635
    ## # ... with 124 more rows
…
